…
> rlang::last_trace()
<error/rlang_error>
Error in `distinct()`:
! Must use existing variables.
✖ `genus` not found in `.data`.
✖ `species` not found in `.data`.
---
Backtrace:
    ▆
 1. ├─dplyr::distinct(tibb, genus, species, .keep_all = T)
 2. └─dplyr:::distinct.data.frame(tibb, genus, species, .keep_all = T)
 3.   └─dplyr::distinct_prepare(...)
 4.     └─rlang::abort(bullets, call = error_call)
> tibb
# A tibble: 497 × 71
   parent  node branc…¹ label CAhei…² CAhei…³ CAhei…⁴ CAhei…⁵   height
    <int> <int>   <dbl> <chr> <list>    <dbl>   <dbl> <list>     <dbl>
 1    264     1 7.49e-4 AA24… <lgl>        NA      NA <lgl>   7.40e-19
 2    264     2 7.49e-4 ZMB6… <lgl>        NA      NA <lgl>   7.40e-19
 3    265     3 7.1 e-5 ZMB7… <lgl>        NA      NA <lgl>   7.38e-19
 4    265     4 7.1 e-5 ZMB7… <lgl>        NA      NA <lgl>   7.38e-19
 5    267     5 6.97e-4 BPBM… <lgl>        NA      NA <lgl>   7.50e-19
 6    267     6 6.97e-4 BPBM… <lgl>        NA      NA <lgl>   7.50e-19
 7    266     7 1.12e-3 BPBM… <lgl>        NA      NA <lgl>   7.51e-19
 8    261     8 1.8 e-3 ZMB7… <lgl>        NA      NA <lgl>   7.52e-19
 9    260     9 1.86e-3 ZMB7… <lgl>        NA      NA <lgl>   7.51e-19
10    270    10 1.31e-3 BPBM… <lgl>        NA      NA <lgl>   7.58e-19
# … with 487 more rows, 62 more variables: height_0.95_HPD <list>,
#   height_median <dbl>, height_range <list>, length <dbl>,
#   length_0.95_HPD <list>, length_median <dbl>, length_range <list>,
#   posterior <dbl>, rate <dbl>, rate_0.95_HPD <list>,
#   rate_median <dbl>, rate_range <list>, id.x <chr>, genus.x <chr>,
#   species.x <chr>, species_reference.x <chr>, lifestyle.x <chr>,
#   habitat_reference.x <chr>, terrane.x <chr>, country.x <chr>, …
# ℹ Use `print(n = ...)` to see more rows, and `colnames()` to see all variable names
…
> tibb <- as_tibble(tree)
> tibb
# A tibble: 497 × 46
   parent  node branc…¹ label CAhei…² CAhei…³ CAhei…⁴ CAhei…⁵   height
    <int> <int>   <dbl> <chr> <list>    <dbl>   <dbl> <list>     <dbl>
 1    264     1 7.49e-4 AA24… <lgl>        NA      NA <lgl>   7.40e-19
 2    264     2 7.49e-4 ZMB6… <lgl>        NA      NA <lgl>   7.40e-19
 3    265     3 7.1 e-5 ZMB7… <lgl>        NA      NA <lgl>   7.38e-19
 4    265     4 7.1 e-5 ZMB7… <lgl>        NA      NA <lgl>   7.38e-19
 5    267     5 6.97e-4 BPBM… <lgl>        NA      NA <lgl>   7.50e-19
 6    267     6 6.97e-4 BPBM… <lgl>        NA      NA <lgl>   7.50e-19
 7    266     7 1.12e-3 BPBM… <lgl>        NA      NA <lgl>   7.51e-19
 8    261     8 1.8 e-3 ZMB7… <lgl>        NA      NA <lgl>   7.52e-19
 9    260     9 1.86e-3 ZMB7… <lgl>        NA      NA <lgl>   7.51e-19
10    270    10 1.31e-3 BPBM… <lgl>        NA      NA <lgl>   7.58e-19
# … with 487 more rows, 37 more variables: height_0.95_HPD <list>,
#   height_median <dbl>, height_range <list>, length <dbl>,
#   length_0.95_HPD <list>, length_median <dbl>, length_range <list>,
#   posterior <dbl>, rate <dbl>, rate_0.95_HPD <list>,
#   rate_median <dbl>, rate_range <list>, id <chr>, genus <chr>,
#   species <chr>, species_reference <chr>, lifestyle <chr>,
#   habitat_reference <chr>, terrane <chr>, country <chr>, …
# ℹ Use `print(n = ...)` to see more rows, and `colnames()` to see all variable names
> ss <- distinct(tibb, genus, species, .keep_all=T)  # distinct species per site
> ss
# A tibble: 211 × 46
   parent  node branc…¹ label CAhei…² CAhei…³ CAhei…⁴ CAhei…⁵   height
    <int> <int>   <dbl> <chr> <list>    <dbl>   <dbl> <list>     <dbl>
 1    264     1 7.49e-4 AA24… <lgl>        NA      NA <lgl>   7.40e-19
 2    264     2 7.49e-4 ZMB6… <lgl>        NA      NA <lgl>   7.40e-19
 3    265     3 7.1 e-5 ZMB7… <lgl>        NA      NA <lgl>   7.38e-19
 4    267     5 6.97e-4 BPBM… <lgl>        NA      NA <lgl>   7.50e-19
 5    267     6 6.97e-4 BPBM… <lgl>        NA      NA <lgl>   7.50e-19
 6    266     7 1.12e-3 BPBM… <lgl>        NA      NA <lgl>   7.51e-19
 7    261     8 1.8 e-3 ZMB7… <lgl>        NA      NA <lgl>   7.52e-19
 8    260     9 1.86e-3 ZMB7… <lgl>        NA      NA <lgl>   7.51e-19
 9    270    10 1.31e-3 BPBM… <lgl>        NA      NA <lgl>   7.58e-19
10    270    11 1.31e-3 BPBM… <lgl>        NA      NA <lgl>   7.58e-19
# … with 201 more rows, 37 more variables: height_0.95_HPD <list>,
#   height_median <dbl>, height_range <list>, length <dbl>,
#   length_0.95_HPD <list>, length_median <dbl>, length_range <list>,
#   posterior <dbl>, rate <dbl>, rate_0.95_HPD <list>,
#   rate_median <dbl>, rate_range <list>, id <chr>, genus <chr>,
#   species <chr>, species_reference <chr>, lifestyle <chr>,
#   habitat_reference <chr>, terrane <chr>, country <chr>, …
# ℹ Use `print(n = ...)` to see more rows, and `colnames()` to see all variable names
…
